{
	"metadata" : 
	{
		"creator" : "Rapid API C++",
		"inputNames" : [ "inputs-1", "inputs-2" ],
		"numInputs" : 2,
		"numOutputs" : 5,
		"version" : "v0.1.1"
	},
	"modelSet" : 
	[
		{
			"inBases" : [ 0.5, 0.5 ],
			"inRanges" : [ 0.5, 0.5 ],
			"inputNames" : [ "inputs-1", "inputs-2" ],
			"modelType" : "Neural Network",
			"nodes" : 
			[
				{
					"Node 1" : 1.2639913902975541,
					"Node 2" : -1.7471055883033124,
					"Threshold" : 0.16169486141999953,
					"name" : "Linear Node 0"
				},
				{
					"Attrib inputs-1" : 0.30024766167238148,
					"Attrib inputs-2" : 1.1068264902598064,
					"Threshold" : -0.19289393918723069,
					"name" : "Sigmoid Node 1"
				},
				{
					"Attrib inputs-1" : -1.1161284755827803,
					"Attrib inputs-2" : -0.77062441219679834,
					"Threshold" : -0.58303808216826469,
					"name" : "Sigmoid Node 2"
				}
			],
			"numHiddenLayers" : 1,
			"numHiddenNodes" : 2,
			"numHiddenOutputs" : 1,
			"numInputs" : 2,
			"outBase" : 0.13185654712628714,
			"outRange" : 0.13185654712628714,
			"whichInputs" : [ 0, 1 ]
		},
		{
			"inBases" : [ 0.5, 0.5 ],
			"inRanges" : [ 0.5, 0.5 ],
			"inputNames" : [ "inputs-1", "inputs-2" ],
			"modelType" : "Neural Network",
			"nodes" : 
			[
				{
					"Node 1" : -0.6241096008631758,
					"Node 2" : -2.277109155189085,
					"Threshold" : 1.370094155087562,
					"name" : "Linear Node 0"
				},
				{
					"Attrib inputs-1" : 0.091612431876272368,
					"Attrib inputs-2" : 0.89819126046370046,
					"Threshold" : -0.73569061428716087,
					"name" : "Sigmoid Node 1"
				},
				{
					"Attrib inputs-1" : -3.2284767409276038,
					"Attrib inputs-2" : -2.8829726775416256,
					"Threshold" : 1.3122991377475581,
					"name" : "Sigmoid Node 2"
				}
			],
			"numHiddenLayers" : 1,
			"numHiddenNodes" : 2,
			"numHiddenOutputs" : 1,
			"numInputs" : 2,
			"outBase" : 0.5,
			"outRange" : 0.5,
			"whichInputs" : [ 0, 1 ]
		},
		{
			"inBases" : [ 0.5, 0.5 ],
			"inRanges" : [ 0.5, 0.5 ],
			"inputNames" : [ "inputs-1", "inputs-2" ],
			"modelType" : "Neural Network",
			"nodes" : 
			[
				{
					"Node 1" : 0.92905807267757623,
					"Node 2" : -1.3793938521183364,
					"Threshold" : 0.11163754087190332,
					"name" : "Linear Node 0"
				},
				{
					"Attrib inputs-1" : 0.93136346433685324,
					"Attrib inputs-2" : 1.7379422929242276,
					"Threshold" : 0.87484495018599517,
					"name" : "Sigmoid Node 1"
				},
				{
					"Attrib inputs-1" : -1.8616659228765671,
					"Attrib inputs-2" : -1.5161618594905939,
					"Threshold" : -1.1594934402671004,
					"name" : "Sigmoid Node 2"
				}
			],
			"numHiddenLayers" : 1,
			"numHiddenNodes" : 2,
			"numHiddenOutputs" : 1,
			"numInputs" : 2,
			"outBase" : 0.29641351405578326,
			"outRange" : 0.29641351405578326,
			"whichInputs" : [ 0, 1 ]
		},
		{
			"inBases" : [ 0.5, 0.5 ],
			"inRanges" : [ 0.5, 0.5 ],
			"inputNames" : [ "inputs-1", "inputs-2" ],
			"modelType" : "Neural Network",
			"nodes" : 
			[
				{
					"Node 1" : -2.651725236086965,
					"Node 2" : 2.9012944400676939,
					"Threshold" : 1.0019428283487235,
					"name" : "Linear Node 0"
				},
				{
					"Attrib inputs-1" : 0.87757328502663834,
					"Attrib inputs-2" : 1.6841521136140507,
					"Threshold" : 0.9645568441957838,
					"name" : "Sigmoid Node 1"
				},
				{
					"Attrib inputs-1" : 2.9014810081545539,
					"Attrib inputs-2" : 3.2469850715405295,
					"Threshold" : -4.0860648809267346,
					"name" : "Sigmoid Node 2"
				}
			],
			"numHiddenLayers" : 1,
			"numHiddenNodes" : 2,
			"numHiddenOutputs" : 1,
			"numInputs" : 2,
			"outBase" : 0.3902953765060328,
			"outRange" : 0.15189873870415022,
			"whichInputs" : [ 0, 1 ]
		},
		{
			"inBases" : [ 0.5, 0.5 ],
			"inRanges" : [ 0.5, 0.5 ],
			"inputNames" : [ "inputs-1", "inputs-2" ],
			"modelType" : "Neural Network",
			"nodes" : 
			[
				{
					"Node 1" : 0.92490259786960738,
					"Node 2" : -1.5578696189659651,
					"Threshold" : 0.32729416489696173,
					"name" : "Linear Node 0"
				},
				{
					"Attrib inputs-1" : 0.34348718298333591,
					"Attrib inputs-2" : 1.1500660115707566,
					"Threshold" : -0.2309729999245991,
					"name" : "Sigmoid Node 1"
				},
				{
					"Attrib inputs-1" : -1.7297103474737956,
					"Attrib inputs-2" : -1.3842062840878193,
					"Threshold" : -0.32977222704687947,
					"name" : "Sigmoid Node 2"
				}
			],
			"numHiddenLayers" : 1,
			"numHiddenNodes" : 2,
			"numHiddenOutputs" : 1,
			"numInputs" : 2,
			"outBase" : 0.0981012718586982,
			"outRange" : 0.0981012718586982,
			"whichInputs" : [ 0, 1 ]
		}
	]
}
