{
	"pattrstorage" : 	{
		"name" : "4a",
		"slots" : 		{
			"1" : 			{
				"id" : 1,
				"data" : 				{
					"bbdmi.rms~::Chans" : [  ],
					"bbdmi.rms~::Winsize" : [  ],
					"bbdmi.rms~::Interval" : [  ],
					"bbdmi.calibrate::Chans" : [ 4 ]
				}

			}

		}

	}

}
